<?xml version="1.0" encoding="UTF-8" standalone="no"?>
<svg
   xmlns:dc="http://purl.org/dc/elements/1.1/"
   xmlns:cc="http://creativecommons.org/ns#"
   xmlns:rdf="http://www.w3.org/1999/02/22-rdf-syntax-ns#"
   xmlns:svg="http://www.w3.org/2000/svg"
   xmlns="http://www.w3.org/2000/svg"
   xmlns:sodipodi="http://sodipodi.sourceforge.net/DTD/sodipodi-0.dtd"
   xmlns:inkscape="http://www.inkscape.org/namespaces/inkscape"
   height="16"
   width="16"
   version="1.1"
   id="svg6"
   sodipodi:docname="system-users.svg"
   inkscape:version="0.92.2 2405546, 2018-03-11">
  <metadata
     id="metadata12">
    <rdf:RDF>
      <cc:Work
         rdf:about="">
        <dc:format>image/svg+xml</dc:format>
        <dc:type
           rdf:resource="http://purl.org/dc/dcmitype/StillImage" />
      </cc:Work>
    </rdf:RDF>
  </metadata>
  <defs
     id="defs10" />
  <sodipodi:namedview
     pagecolor="#ffffff"
     bordercolor="#666666"
     borderopacity="1"
     objecttolerance="10"
     gridtolerance="10"
     guidetolerance="10"
     inkscape:pageopacity="0"
     inkscape:pageshadow="2"
     inkscape:window-width="929"
     inkscape:window-height="480"
     id="namedview8"
     showgrid="false"
     inkscape:zoom="14.75"
     inkscape:cx="8"
     inkscape:cy="8"
     inkscape:window-x="0"
     inkscape:window-y="0"
     inkscape:window-maximized="0"
     inkscape:current-layer="svg6" />
  <g
     color="#000"
     transform="translate(-852.002 -552)"
     id="g4">
    <path
       d="M857.502 554.052a2.5 2.5 0 0 0-2.5 2.5v1c-.277 0-.5.223-.5.5v.5c0 .552.224 1 .5 1 .037 0 .059-.048.094-.063.148.759.47 1.418.906 1.875-.02.701-.106.74-.156.969-1.145 1.009-2.412 1.567-3.657 2.344a.487.487 0 0 0-.187.375v1.5c0 .277.223.5.5.5h10c.277 0 .5-.223.5-.5v-1.5a.484.484 0 0 0-.156-.344c-1.264-.78-2.564-1.324-3.688-2.375-.05-.229-.136-.268-.156-.969.436-.457.757-1.116.906-1.875.035.015.057.063.094.063.276 0 .5-.448.5-1v-.5c0-.277-.223-.5-.5-.5v-1a2.5 2.5 0 0 0-2.5-2.5zm6.25 2a1.945 1.945 0 0 0-1.938 1.937v.75c-.16 0-.285.112-.343.25-.005.032-.026.063-.032.094v.437c0 .425.162.75.375.75.029 0 .067-.02.094-.03.115.583.35 1.085.688 1.437-.016.539-.086.574-.125.75a7.197 7.197 0 0 1-.688.53c.501.291 1.032.56 1.594.907a1.002 1.002 0 0 1 .187.125c.219.218.438.606.438 1.063v1.5c0 .177-.035.34-.094.5h3.719a.367.367 0 0 0 .375-.375v-2.157a.415.415 0 0 0-.125-.28c-.977-.6-1.976-1.005-2.844-1.813-.04-.176-.109-.211-.125-.75.337-.352.604-.854.719-1.438.027.012.034.031.062.031.214 0 .375-.325.375-.75v-.406a.367.367 0 0 0-.375-.375v-.75c0-1.062-.87-1.937-1.937-1.937z"
       fill="#666"
       overflow="visible"
       style="marker:none"
       id="path2" />
  </g>
</svg>
